{
  "future":[
    {
      "name": "ALL",
      "patch":[{
        "field": "rocket.first_stage.cores[0].block",
        "old": null,
        "value": 5
      },{
        "field": "rocket.second_stage.payloads[0].orbit",
        "old": "VLEO",
        "value": "LEO"
      }]
    },{
      "name":"CCtCap Demo Mission 2",
      "patch":[{
        "field": "rocket.first_stage.cores[0].flight",
        "value": 1
      },{
        "field": "rocket.first_stage.cores[0].core_serial",
        "value": "B1058"
      },{
        "field": "rocket.first_stage.cores[0].landing_type",
        "old": null,
        "value": "ASDS"
      },{
        "field": "rocket.first_stage.cores[0].landing_vehicle",
        "old": null,
        "value": "OCISLY"
      }]
    },{
      "name":"GiSAT-1",
      "patch":[{
        "field": "tentative_max_precision",
        "old": "half",
        "value": "year"
      }]
    },{
      "name":"CRS-20",
      "patch":[{
        "field": "rocket.second_stage.payloads[0].payload_mass_kg",
        "old": null,
        "value": 2450
      }]
    },{
      "name":"Starlink 6",
      "patch":[{
        "field": "rocket.first_stage.cores[0].flight",
        "value": 4
      },{
        "field": "rocket.first_stage.cores[0].core_serial",
        "value": "B1051"
      },{
        "field": "rocket.first_stage.cores[0].landing_type",
        "old": null,
        "value": "ASDS"
      },{
        "field": "rocket.first_stage.cores[0].landing_vehicle",
        "old": null,
        "value": "OCISLY"
      }]
    }
  ],
  "past":[
    {
      "flight":64,
      "patch":[{
        "field": "reuse.capsule",
        "value": true
      }]
    },{
      "flight":77,
      "patch":[{
        "field": "rocket.second_stage.payloads[0].payload_mass_kg",
        "value": 6465
      }]
    },{
      "flight":78,
      "patch":[{
        "field": "rocket.first_stage.cores[0].flight",
        "value": 1
      }]
    },{
      "flight":84,
      "patch":[{
        "field": "rocket.second_stage.payloads[0].orbit",
        "value": "LEO"
      },{
        "field": "rocket.second_stage.payloads[0].payload_mass_kg",
        "value": 15600,
        "old": null
      },{
        "field": "rocket.first_stage.cores[0].core_serial",
        "value": "B1048"
      },{
        "field": "rocket.second_stage.payloads[0].payload_id",
        "value": "Starlink 1"
      }]
    },{
      "flight":87,
      "patch":[{
        "field": "rocket.second_stage.payloads[0].orbit",
        "value": "LEO"
        }]
    },{
      "flight":89,
      "patch":[{
        "field": "rocket.second_stage.payloads[0].orbit",
        "value": "LEO"
      }]
    },{
      "flight":90,
      "patch":[{
        "field": "rocket.second_stage.payloads[0].orbit",
        "value": "LEO"
      },{
        "field": "rocket.second_stage.payloads[0].payload_mass_kg",
        "value": 15600
      }]
    },{
      "flight":92,
      "patch":[{
        "field": "rocket.second_stage.payloads[0].orbit",
        "value": "LEO"
      }]
    },{
      "flight":79,
      "patch":[{
        "field": "rocket.second_stage.payloads[0].payload_id",
        "value": "Starlink v0.9"
      },{
        "field": "rocket.second_stage.payloads[0].orbit",
        "value": "LEO"
      }]
    },{
      "flight":76,
      "patch":[{
        "field": "rocket.second_stage.payloads[0].payload_mass_kg",
        "value": 0
      }]
    },{
      "flight":70,
      "patch":[{
        "field": "rocket.second_stage.payloads[0].payload_mass_kg",
        "value": 5300
      }]
    },{
      "flight":8,
      "patch":[{
        "field": "rocket.second_stage.payloads[0].orbit",
        "value": "ISS"
      }]
    },{
      "flight":85,
      "patch":[{
        "field": "rocket.second_stage.payloads[0].payload_mass_kg",
        "value": 2617
      },{
        "field": "rocket.second_stage.payloads[0].cargo_manifest",
        "value": "https://www.nasa.gov/sites/default/files/atoms/files/spacex_crs-19_mission_overview.pdf"
      }]
    }
  ]
}
